Using Package migstat to Calculate Outcomes-Based Migration Statistics
…
Defining threshold and test durations

In this vignette, we use a 9/12 rule. In other words, the threshold period is 9 months, and the test period is 12 months - approximately. The “approximately” is necessary because in practice we define the threshold and test periods using days rather than months. Months are difficult to work with, since their lengths vary in complicated ways. Instead of 9 months we use 270 days, and instead of 12 months we use 365 days:

dur_threshold <- 270
dur_test <- 365

Input Data

We use some made-up data, which is included in the migstat package.

crossings <- migstat::border_crossings %>%
  as_data_frame()
crossings
#> # A tibble: 24 x 6
#>    crossing_id name  passport_no datetime_crossing   direction res_status_default
#>          <int> <chr> <chr>       <chr>               <chr>                  <int>
#>  1           1 Cai   C103        2009-05-02 07:23:41 Arrival                    1
#>  2           2 Amy   A101        2009-05-18 12:01:33 Arrival                    0
#>  3           3 Amy   A101        2009-05-25 01:23:54 Departure                  0
#>  4           4 Eisha E105        2009-10-06 13:09:33 Departure                  1
#>  5           5 Eisha E105        2009-10-21 21:51:03 Arrival                    1
#>  6           6 Cai   X200        2010-02-15 19:23:04 Departure                  1
#>  7           7 David D104        2010-02-16 18:32:03 Departure                  1
#>  8           8 Cai   C103        2010-02-25 06:31:28 Arrival                    1
#>  9           9 Amy   A101        2010-05-13 22:57:44 Arrival                    0
#> 10          10 Amy   A101        2010-05-20 05:31:54 Departure                  0
#> # ... with 14 more rows
…
Our solution is to link people’s border crossings using a combination of name and passport number:

crossings <- crossings %>%
  mutate(personId = make_person_id(key1 = name, key2 = passport_no)) %>%
  arrange(personId)
crossings
#> # A tibble: 24 x 8
#>    crossing_id name  passport_no datetime_crossing   direction res_status_default date_crossing personId
#>          <int> <chr> <chr>       <chr>               <chr>                  <int> <date>           <int>
#>  1           1 Cai   C103        2009-05-02 07:23:41 Arrival                    1 2009-05-02           1
#>  2           6 Cai   X200        2010-02-15 19:23:04 Departure                  1 2010-02-15           1
#>  3           8 Cai   C103        2010-02-25 06:31:28 Arrival                    1 2010-02-25           1
#>  4          12 Cai   C103        2010-06-02 15:43:22 Departure                  1 2010-06-02           1
#>  5          17 Cai   C103        2011-01-22 22:43:09 Arrival                    0 2011-01-22           1
#>  6          18 Cai   X200        2011-06-28 11:15:02 Departure                  1 2011-06-28           1
#>  7          19 Cai   C103        2011-07-12 20:15:03 Arrival                    1 2011-07-12           1
#>  8           2 Amy   A101        2009-05-18 12:01:33 Arrival                    0 2009-05-18           2
#>  9           3 Amy   A101        2009-05-25 01:23:54 Departure                  0 2009-05-25           2
#> 10           9 Amy   A101        2010-05-13 22:57:44 Arrival                    0 2010-05-13           2
#> # ... with 14 more rows

The make_person_id function offers more possibilities for building IDs than might be thought. Arguments  and  do not have to be the original fields such as name or passport number. Instead, we can, for instance, make  equal name concatenated to date of birth, and make  equal to name concatenated to passport number, implying that two records belong to the same person if name and date of birth, or name and passport number, match. The appropriate setup for  and  varies from application to application, and we do not discuss it further here.

Now that we have the personId variable, we no longer need the name and passport_no variables:

crossings <- crossings %>%
  select(-name, -passport_no)
crossings
#> # A tibble: 24 x 6
#>    crossing_id datetime_crossing   direction res_status_default date_crossing personId
#>          <int> <chr>               <chr>                  <int> <date>           <int>
#>  1           1 2009-05-02 07:23:41 Arrival                    1 2009-05-02           1
#>  2           6 2010-02-15 19:23:04 Departure                  1 2010-02-15           1
#>  3           8 2010-02-25 06:31:28 Arrival                    1 2010-02-25           1
#>  4          12 2010-06-02 15:43:22 Departure                  1 2010-06-02           1
#>  5          17 2011-01-22 22:43:09 Arrival                    0 2011-01-22           1
#>  6          18 2011-06-28 11:15:02 Departure                  1 2011-06-28           1
#>  7          19 2011-07-12 20:15:03 Arrival                    1 2011-07-12           1
#>  8           2 2009-05-18 12:01:33 Arrival                    0 2009-05-18           2
#>  9           3 2009-05-25 01:23:54 Departure                  0 2009-05-25           2
#> 10           9 2010-05-13 22:57:44 Arrival                    0 2010-05-13           2
#> # ... with 14 more rows

For graphs of the migration histories, along with code to create them, see the Appendix.

Recoding the direction variable

One final piece of data preparation is recoding the direction variable. Instead of the direction variable, functions in package migstat use a binary variable called is_arrival.

crossings <- crossings %>%
  mutate(is_arrival = 1 * (direction == "Arrival")) %>%
  select(personId, crossing_id, date_crossing, is_arrival, res_status_default)
crossings
#> # A tibble: 24 x 5
#>    personId crossing_id date_crossing is_arrival res_status_default
#>       <int>       <int> <date>             <dbl>              <int>
#>  1        1           1 2009-05-02             1                  1
#>  2        1           6 2010-02-15             0                  1
#>  3        1           8 2010-02-25             1                  1
#>  4        1          12 2010-06-02             0                  1
#>  5        1          17 2011-01-22             1                  0
#>  6        1          18 2011-06-28             0                  1
#>  7        1          19 2011-07-12             1                  1
#>  8        2           2 2009-05-18             1                  0
#>  9        2           3 2009-05-25             0                  0
#> 10        2           9 2010-05-13             1                  0
#> # ... with 14 more rows

Calculating days observed

We are now ready to calculate the first of the variables describing travel histories. The variable, days_obs, equals (i) the number of days between the border crossing and the end of the observation period, or (ii) the length of the test period - whichever is smallest.

crossings <- crossings %>%
  mutate(days_obs = calc_days_obs(date_crossing = date_crossing,
                                  date_obs_end = date_classif_end,
                                  dur_test = dur_test))
select(crossings, crossing_id, date_crossing, is_arrival, days_obs)
#> # A tibble: 24 x 4
#>    crossing_id date_crossing is_arrival days_obs
#>          <int> <date>             <dbl>    <int>
#>  1           1 2009-05-02             1      365
#>  2           6 2010-02-15             0      365
#>  3           8 2010-02-25             1      365
#>  4          12 2010-06-02             0      365
#>  5          17 2011-01-22             1      343
#>  6          18 2011-06-28             0      186
#>  7          19 2011-07-12             1      172
#>  8           2 2009-05-18             1      365
#>  9           3 2009-05-25             0      365
#> 10           9 2010-05-13             1      365
#> # ... with 14 more rows
…
pmin(pmax(date_obs_end - date_crossing, 0L), dur_test)

Calculating days in country

The variable days_in_country gives the number of days that the person spends inside the country between the border crossing and the end of the observation period, though, as with days_obs it is also bounded by the length of the test period. Each entry in days_in_country must be smaller than or equal to the corresponding entry in days_obs.

crossings <- crossings %>%
  mutate(days_in_country = calc_days_in_country(personId = personId,
                                                date_crossing = date_crossing,
                                                is_arrival = is_arrival,
                                                date_obs_end = date_classif_end,
                                                dur_test = dur_test))
select(crossings, crossing_id, date_crossing, is_arrival, days_obs, days_in_country)
#> # A tibble: 24 x 5
#>    crossing_id date_crossing is_arrival days_obs days_in_country
#>          <int> <date>             <dbl>    <int>           <int>
#>  1           1 2009-05-02             1      365             355
#>  2           6 2010-02-15             0      365             121
#>  3           8 2010-02-25             1      365             131
#>  4          12 2010-06-02             0      365             131
#>  5          17 2011-01-22             1      343             329
#>  6          18 2011-06-28             0      186             172
#>  7          19 2011-07-12             1      172             172
#>  8           2 2009-05-18             1      365              12
#>  9           3 2009-05-25             0      365               7
#> 10           9 2010-05-13             1      365               7
#> # ... with 14 more rows
…
Classify movements

We are now ready to classify movements. First we add the values from res_status_initial to the crossings data frame:

crossings <- crossings %>%
  filter(date_crossing >= date_classif_start) %>%
  left_join(res_status_initial, by = "personId")
select(crossings, personId, crossing_id, res_status_initial)
#> # A tibble: 24 x 3
#>    personId crossing_id res_status_initial
#>       <int>       <int>              <dbl>
#>  1        1           1                  1
#>  2        1           6                  1
#>  3        1           8                  1
#>  4        1          12                  1
#>  5        1          17                  1
#>  6        1          18                  1
#>  7        1          19                  1
#>  8        2           2                  0
#>  9        2           3                  0
#> 10        2           9                  0
#> # ... with 14 more rows

Adding initial residence status to every border crossing for each person, rather than just the first border crossing for each person, is a little ugly. It is, however, convenient.

We start by calculating residence status after each movement. The calculations are based by applying the classification rules, including some non-obvious implications of these rules: see [TECHNICAL PAPER] for the details. For some crossings, there is insufficient information to unambiguously assign a residence status after the crossing. In such cases, the residence status is marked as NA.

crossings <- crossings %>%
  mutate(res_status_after = calc_res_status_after(personId = personId,
                                                  is_arrival = is_arrival,
                                                  days_in_country = days_in_country,
                                                  days_obs = days_obs,
                                                  res_status_initial = res_status_initial,
                                                  dur_test = dur_test,
                                                  dur_threshold = dur_threshold))
select(crossings, personId, is_arrival, days_in_country, days_obs, res_status_initial, res_status_after)
#> # A tibble: 24 x 6
#>    personId is_arrival days_in_country days_obs res_status_initial res_status_after
#>       <int>      <dbl>           <int>    <int>              <dbl>            <int>
#>  1        1          1             355      365                  1                1
#>  2        1          0             121      365                  1                1
#>  3        1          1             131      365                  1                1
#>  4        1          0             131      365                  1                1
#>  5        1          1             329      343                  1                1
#>  6        1          0             172      186                  1                1
#>  7        1          1             172      172                  1                1
#>  8        2          1              12      365                  0                0
#>  9        2          0               7      365                  0                0
#> 10        2          1               7      365                  0                0
#> # ... with 14 more rows

A person’s residence status immediately after a border crossing is identical to the person’s residence status immediately before their next border crossing. We can use this fact, plus residence statuses after each crossing, plus initial residence statuses, to derive residence statuses before each crossing.

crossings <- crossings %>%
  mutate(res_status_before = calc_res_status_before(personId = personId,
                                                    res_status_initial = res_status_initial,
                                                    res_status_after = res_status_after))
select(crossings, personId, res_status_initial, res_status_after, res_status_before)
#> # A tibble: 24 x 4
#>    personId res_status_initial res_status_after res_status_before
#>       <int>              <dbl>            <int>             <int>
#>  1        1                  1                1                 1
#>  2        1                  1                1                 1
#>  3        1                  1                1                 1
#>  4        1                  1                1                 1
#>  5        1                  1                1                 1
#>  6        1                  1                1                 1
#>  7        1                  1                1                 1
#>  8        2                  0                0                 0
#>  9        2                  0                0                 0
#> 10        2                  0                0                 0
#> # ... with 14 more rows
…
